Permutation 1:
   random

   Average: 1093.876
   Std Dev: 539.7451700793625
   Median: 1058.0
   Max: 4348



Permutation 2:
   greedy

   Average: 2290.288
   Std Dev: 1102.414055178906
   Median: 2120.0
   Max: 7312



Permutation 3:
   monotonicity

   Average: 3157.62
   Std Dev: 1198.872143141211
   Median: 3160.0
   Max: 8920



Permutation 4:
   uniformity

   Average: 2273.36
   Std Dev: 1079.251551029694
   Median: 2154.0
   Max: 6676



Permutation 5:
   empty

   Average: 2968.308
   Std Dev: 1466.8518074897684
   Median: 2754.0
   Max: 9696



Permutation 6:
   empty
   random

   Average: 1948.132
   Std Dev: 878.6316626300238
   Median: 1652.0
   Max: 6336



Permutation 7:
   empty
   monotonicity
   random

   Average: 3947.828
   Std Dev: 1883.284191622709
   Median: 3442.0
   Max: 12488



Permutation 8:
   empty
   monotonicity
   uniformity
   random

   Average: 3873.476
   Std Dev: 1828.5013091119185
   Median: 3444.0
   Max: 12404



Permutation 9:
   empty
   monotonicity
   uniformity
   greedy
   random

   Average: 3944.404
   Std Dev: 1861.7088098797835
   Median: 3480.0
   Max: 12688



Permutation 10:
   empty
   monotonicity
   greedy
   random

   Average: 3874.148
   Std Dev: 1810.1413011408804
   Median: 3436.0
   Max: 12136



Permutation 11:
   empty
   monotonicity
   greedy
   uniformity
   random

   Average: 3883.58
   Std Dev: 1820.2940948099567
   Median: 3448.0
   Max: 12376



Permutation 12:
   empty
   greedy
   random

   Average: 1943.604
   Std Dev: 911.8011291855258
   Median: 1628.0
   Max: 6280



Permutation 13:
   empty
   greedy
   monotonicity
   random

   Average: 3769.508
   Std Dev: 1762.6624719259216
   Median: 3398.0
   Max: 11968



Permutation 14:
   empty
   greedy
   monotonicity
   uniformity
   random

   Average: 3764.664
   Std Dev: 1728.7448878027087
   Median: 3418.0
   Max: 12352



Permutation 15:
   greedy
   random

   Average: 1090.644
   Std Dev: 530.2134223725386
   Median: 1044.0
   Max: 3088



Permutation 16:
   greedy
   empty
   random

   Average: 1967.7
   Std Dev: 909.2398704412384
   Median: 1662.0
   Max: 6416



Permutation 17:
   greedy
   empty
   monotonicity
   random

   Average: 3946.132
   Std Dev: 1857.77833300316
   Median: 3444.0
   Max: 12248



Permutation 18:
   greedy
   empty
   monotonicity
   uniformity
   random

   Average: 3930.656
   Std Dev: 1824.018776675284
   Median: 3510.0
   Max: 12872



Permutation 19:
   monotonicity
   random

   Average: 3177.172
   Std Dev: 1196.2543485463282
   Median: 3218.0
   Max: 7636



Permutation 20:
   monotonicity
   empty
   random

   Average: 3637.388
   Std Dev: 1528.6516128457786
   Median: 3404.0
   Max: 10840



Permutation 21:
   monotonicity
   empty
   uniformity
   random

   Average: 3623.864
   Std Dev: 1429.2327387462128
   Median: 3400.0
   Max: 11788



Permutation 22:
   monotonicity
   empty
   uniformity
   greedy
   random

   Average: 3579.928
   Std Dev: 1520.070186147995
   Median: 3406.0
   Max: 13100



Permutation 23:
   monotonicity
   empty
   greedy
   random

   Average: 3687.952
   Std Dev: 1468.5087829822469
   Median: 3494.0
   Max: 11448



Permutation 24:
   monotonicity
   empty
   greedy
   uniformity
   random

   Average: 3625.4
   Std Dev: 1471.2503933729297
   Median: 3400.0
   Max: 11364



Permutation 25:
   monotonicity
   greedy
   random

   Average: 3209.704
   Std Dev: 1278.3744836252013
   Median: 3200.0
   Max: 8496



Permutation 26:
   monotonicity
   greedy
   empty
   random

   Average: 3665.756
   Std Dev: 1458.02422080842
   Median: 3470.0
   Max: 8864



Permutation 27:
   monotonicity
   greedy
   empty
   uniformity
   random

   Average: 3617.696
   Std Dev: 1464.641237840858
   Median: 3422.0
   Max: 10504



Permutation 28:
   greedy
   monotonicity
   random

   Average: 3209.088
   Std Dev: 1246.9113457884646
   Median: 3180.0
   Max: 9004



Permutation 29:
   greedy
   monotonicity
   empty
   random

   Average: 3662.668
   Std Dev: 1502.4748336581215
   Median: 3490.0
   Max: 10712



Permutation 30:
   greedy
   monotonicity
   empty
   uniformity
   random

   Average: 3620.264
   Std Dev: 1429.3953610894364
   Median: 3408.0
   Max: 9336



Permutation 31:
   monotonicity
   uniformity
   random

   Average: 3149.556
   Std Dev: 1196.9470342767886
   Median: 3172.0
   Max: 8148



Permutation 32:
   monotonicity
   uniformity
   empty
   random

   Average: 3582.2
   Std Dev: 1435.4707297607988
   Median: 3380.0
   Max: 9084



Permutation 33:
   monotonicity
   uniformity
   empty
   greedy
   random

   Average: 3612.708
   Std Dev: 1381.2473647887984
   Median: 3464.0
   Max: 7776



Permutation 34:
   monotonicity
   uniformity
   greedy
   random

   Average: 3144.456
   Std Dev: 1176.338475126951
   Median: 3190.0
   Max: 7800



Permutation 35:
   monotonicity
   uniformity
   greedy
   empty
   random

   Average: 3623.132
   Std Dev: 1490.6730716612547
   Median: 3444.0
   Max: 12324



Permutation 36:
   monotonicity
   greedy
   uniformity
   random

   Average: 3189.768
   Std Dev: 1277.7013900657696
   Median: 3168.0
   Max: 13708



Permutation 37:
   monotonicity
   greedy
   uniformity
   empty
   random

   Average: 3604.02
   Std Dev: 1493.0906843189398
   Median: 3396.0
   Max: 12172



Permutation 38:
   greedy
   monotonicity
   uniformity
   random

   Average: 3197.608
   Std Dev: 1227.234174204744
   Median: 3198.0
   Max: 8656



Permutation 39:
   greedy
   monotonicity
   uniformity
   empty
   random

   Average: 3618.04
   Std Dev: 1464.738840339806
   Median: 3416.0
   Max: 11528



Permutation 40:
   empty
   uniformity
   random

   Average: 1889.224
   Std Dev: 874.0607426397778
   Median: 1578.0
   Max: 5392



Permutation 41:
   empty
   uniformity
   monotonicity
   random

   Average: 3924.292
   Std Dev: 1820.3692621927014
   Median: 3516.0
   Max: 13248



Permutation 42:
   empty
   uniformity
   monotonicity
   greedy
   random

   Average: 3821.28
   Std Dev: 1805.720348669749
   Median: 3408.0
   Max: 12128



Permutation 43:
   empty
   uniformity
   greedy
   random

   Average: 1951.296
   Std Dev: 914.289766093879
   Median: 1610.0
   Max: 5572



Permutation 44:
   empty
   uniformity
   greedy
   monotonicity
   random

   Average: 3879.128
   Std Dev: 1812.9579916854113
   Median: 3474.0
   Max: 12356



Permutation 45:
   empty
   greedy
   uniformity
   random

   Average: 1872.296
   Std Dev: 866.9012079723963
   Median: 1548.0
   Max: 6160



Permutation 46:
   empty
   greedy
   uniformity
   monotonicity
   random

   Average: 3868.248
   Std Dev: 1754.3548473715346
   Median: 3452.0
   Max: 12476



Permutation 47:
   greedy
   empty
   uniformity
   random

   Average: 1910.176
   Std Dev: 900.5592223857352
   Median: 1586.0
   Max: 5972



Permutation 48:
   greedy
   empty
   uniformity
   monotonicity
   random

   Average: 3925.008
   Std Dev: 1821.796056625439
   Median: 3458.0
   Max: 12264



Permutation 49:
   uniformity
   random

   Average: 1079.356
   Std Dev: 516.6318469316424
   Median: 1038.0
   Max: 2996



Permutation 50:
   uniformity
   empty
   random

   Average: 1835.372
   Std Dev: 860.0558898211208
   Median: 1510.0
   Max: 5584



Permutation 51:
   uniformity
   empty
   monotonicity
   random

   Average: 3830.04
   Std Dev: 1784.919672814438
   Median: 3442.0
   Max: 11684



Permutation 52:
   uniformity
   empty
   monotonicity
   greedy
   random

   Average: 3817.144
   Std Dev: 1843.80175161648
   Median: 3422.0
   Max: 15444



Permutation 53:
   uniformity
   empty
   greedy
   random

   Average: 1927.008
   Std Dev: 885.6564977100321
   Median: 1586.0
   Max: 5508



Permutation 54:
   uniformity
   empty
   greedy
   monotonicity
   random

   Average: 3904.228
   Std Dev: 1836.6249470199407
   Median: 3462.0
   Max: 12292



Permutation 55:
   uniformity
   greedy
   random

   Average: 1100.708
   Std Dev: 554.908737303712
   Median: 1040.0
   Max: 3160



Permutation 56:
   uniformity
   greedy
   empty
   random

   Average: 1941.028
   Std Dev: 900.1908148920427
   Median: 1626.0
   Max: 6092



Permutation 57:
   uniformity
   greedy
   empty
   monotonicity
   random

   Average: 3815.972
   Std Dev: 1846.260128805256
   Median: 3382.0
   Max: 13688



Permutation 58:
   greedy
   uniformity
   random

   Average: 1083.056
   Std Dev: 540.6129899142269
   Median: 1040.0
   Max: 4308



Permutation 59:
   greedy
   uniformity
   empty
   random

   Average: 1934.952
   Std Dev: 900.8464051634995
   Median: 1616.0
   Max: 6392



Permutation 60:
   greedy
   uniformity
   empty
   monotonicity
   random

   Average: 3895.64
   Std Dev: 1833.612905277447
   Median: 3444.0
   Max: 12220



Permutation 61:
   uniformity
   monotonicity
   random

   Average: 3229.72
   Std Dev: 1229.6081008191188
   Median: 3220.0
   Max: 11212



Permutation 62:
   uniformity
   monotonicity
   empty
   random

   Average: 3672.664
   Std Dev: 1447.0263823109792
   Median: 3462.0
   Max: 13396



Permutation 63:
   uniformity
   monotonicity
   empty
   greedy
   random

   Average: 3676.16
   Std Dev: 1431.6048974490134
   Median: 3484.0
   Max: 11100



Permutation 64:
   uniformity
   monotonicity
   greedy
   random

   Average: 3196.72
   Std Dev: 1212.5590367483144
   Median: 3184.0
   Max: 7500



Permutation 65:
   uniformity
   monotonicity
   greedy
   empty
   random

   Average: 3678.352
   Std Dev: 1535.1968955466266
   Median: 3472.0
   Max: 10648



Permutation 66:
   uniformity
   greedy
   monotonicity
   random

   Average: 3125.172
   Std Dev: 1217.6737109817227
   Median: 3108.0
   Max: 8384



Permutation 67:
   uniformity
   greedy
   monotonicity
   empty
   random

   Average: 3682.44
   Std Dev: 1513.5660878864853
   Median: 3448.0
   Max: 10504



Permutation 68:
   greedy
   uniformity
   monotonicity
   random

   Average: 3184.816
   Std Dev: 1265.1422205206813
   Median: 3194.0
   Max: 7776



Permutation 69:
   greedy
   uniformity
   monotonicity
   empty
   random

   Average: 3596.568
   Std Dev: 1475.615753973913
   Median: 3400.0
   Max: 8752



